udp-project/counter-example/waveform.vcd
$version Generated by VerilatedVcd $end
$timescale 1ps $end
 $scope module TOP $end
  $var wire 1 # clk $end
  $var wire 1 $ reset_n $end
  $var wire 1 % nothing $end
  $var wire 8 & count [7:0] $end
  $scope module counter $end
   $var wire 1 # clk $end
   $var wire 1 $ reset_n $end
   $var wire 1 % nothing $end
   $var wire 8 & count [7:0] $end
  $upscope $end
 $upscope $end
$enddefinitions $end


#0
1#
0$
1%
b00000000 &
#1
0#
#2
1#
#3
0#
#4
1#
#5
0#
1$
#6
1#
b00000001 &
#7
0#
#8
1#
b00000010 &
#9
0#
#10
1#
b00000011 &
#11
0#
#12
1#
b00000100 &
#13
0#
#14
1#
b00000101 &
#15
0#
#16
1#
b00000110 &
#17
0#
#18
1#
b00000111 &
#19
0#
#20
1#
b00001000 &
#21
0#
#22
1#
b00001001 &
#23
0#
#24
1#
b00001010 &
#25
0#
#26
1#
b00001011 &
#27
0#
#28
1#
b00001100 &
#29
0#
#30
1#
b00001101 &
#31
0#
#32
1#
b00001110 &
#33
0#
#34
1#
b00001111 &
#35
0#
#36
1#
b00010000 &
#37
0#
#38
1#
b00010001 &
#39
0#
#40
1#
b00010010 &
#41
0#
#42
1#
b00010011 &
#43
0#
#44
1#
b00010100 &
#45
0#
#46
1#
b00010101 &
#47
0#
#48
1#
b00010110 &
#49
0#
#50
1#
b00010111 &
#51
0#
#52
1#
b00011000 &
#53
0#
#54
1#
b00011001 &
#55
0#
#56
1#
b00011010 &
#57
0#
#58
1#
b00011011 &
#59
0#
#60
1#
b00011100 &
#61
0#
#62
1#
b00011101 &
#63
0#
#64
1#
b00011110 &
#65
0#
#66
1#
b00011111 &
#67
0#
#68
1#
b00100000 &
#69
0#
#70
1#
b00100001 &
#71
0#
#72
1#
b00100010 &
#73
0#
#74
1#
b00100011 &
#75
0#
#76
1#
b00100100 &
#77
0#
#78
1#
b00100101 &
#79
0#
#80
1#
b00100110 &
#81
0#
#82
1#
b00100111 &
#83
0#
#84
1#
b00101000 &
#85
0#
#86
1#
b00101001 &
#87
0#
#88
1#
b00101010 &
#89
0#
#90
1#
b00101011 &
#91
0#
#92
1#
b00101100 &
#93
0#
#94
1#
b00101101 &
#95
0#
#96
1#
b00101110 &
#97
0#
#98
1#
b00101111 &
